{
    "name": "Instructions for uploading!",
    "description": "Editor Question adding instructions!",
    "alerts":{
        "stepOne":{
            "selectVariant":{
                "kz": "Сұрақ түрін таңдаңыз!",
                "ru": "Сұрақ түрін таңдаңыз!",
                "en": "Сұрақ түрін таңдаңыз!"
            }
        }
    },
    "steps": {
        "stepOne": {
            "init": {
                "kz": "ascscСұрақ түрін таңдаңыз!",
                "ru": "Сұрақ түрін таңдаңыз!",
                "en": "Сұрақ түрін таңдаңыз!"
            },
            "onevariant": {
                "kz": "Сұрақ түрін таңдаңыз!",
                "ru": "Сұрақ түрін таңдаңыз!",
                "en": "Сұрақ түрін таңдаңыз!"
            },
            "manyvariant": {
                "kz": "Сұрақ түрін таңдаңыз!",
                "ru": "Сұрақ түрін таңдаңыз!",
                "en": "Сұрақ түрін таңдаңыз!"
            },
            "fillblank": {
                "kz": "Сұрақ түрін таңдаңыз!",
                "ru": "Сұрақ түрін таңдаңыз!",
                "en": "Сұрақ түрін таңдаңыз!"
            },
            "matching": {
                "kz": "Сұрақ түрін таңдаңыз!",
                "ru": "Сұрақ түрін таңдаңыз!",
                "en": "Сұрақ түрін таңдаңыз!"
            },
            "manymatching": {
                "kz": "Сұрақ түрін таңдаңыз!",
                "ru": "Сұрақ түрін таңдаңыз!",
                "en": "Сұрақ түрін таңдаңыз!"
            },
            "truefalse": {
                "kz": "Сұрақ түрін таңдаңыз!",
                "ru": "Сұрақ түрін таңдаңыз!",
                "en": "Сұрақ түрін таңдаңыз!"
            },
            "classic": {
                "kz": "Сұрақ түрін таңдаңыз!",
                "ru": "Сұрақ түрін таңдаңыз!",
                "en": "Сұрақ түрін таңдаңыз!"
            }
        },
        "stepTwo": {
            "init": {
                "kz": "Сұрақ түрін таңдаңыз!",
                "ru": "Сұрақ түрін таңдаңыз!",
                "en": "Сұрақ түрін таңдаңыз!"
            },
            "subject":{
                "kz": "Сұрақ түрін таңдаңыз!",
                "ru": "Сұрақ түрін таңдаңыз!",
                "en": "Сұрақ түрін таңдаңыз!"
            },
            "topic": {
                "kz": "Сұрақ түрін таңдаңыз!",
                "ru": "Сұрақ түрін таңдаңыз!",
                "en": "Сұрақ түрін таңдаңыз!"
            },
            "exam": {
                "kz": "Сұрақ түрін таңдаңыз!",
                "ru": "Сұрақ түрін таңдаңыз!",
                "en": "Сұрақ түрін таңдаңыз!"
            },
            "class": {
                "kz": "Сұрақ түрін таңдаңыз!",
                "ru": "Сұрақ түрін таңдаңыз!",
                "en": "Сұрақ түрін таңдаңыз!"
            },
            "level": {
                "kz": "Сұрақ түрін таңдаңыз!",
                "ru": "Сұрақ түрін таңдаңыз!",
                "en": "Сұрақ түрін таңдаңыз!"
            }
        },
        "stepThree": {
            "init": "If you're showing a hidden div like a speech bubble, you'll get flickering on mouseover. Just add the same awesome mouseover/mouseleave code to the hidden div as well",
            "onevariant":"If you're showing a hidden div like a speech bubble, you'll get flickering on mouseover. Just add the same awesome mouseover/mouseleave code to the hidden div as well",
            "manyvariant":"If you're showing a hidden div like a speech bubble, you'll get flickering on mouseover. Just add the same awesome mouseover/mouseleave code to the hidden div as well",
            "fillblank":"If you're showing a hidden div like a speech bubble, you'll get flickering on mouseover. Just add the same awesome mouseover/mouseleave code to the hidden div as well",
            "matching":"If you're showing a hidden div like a speech bubble, you'll get flickering on mouseover. Just add the same awesome mouseover/mouseleave code to the hidden div as well",
            "manymatching":"If you're showing a hidden div like a speech bubble, you'll get flickering on mouseover. Just add the same awesome mouseover/mouseleave code to the hidden div as well",
            "truefalse":"If you're showing a hidden div like a speech bubble, you'll get flickering on mouseover. Just add the same awesome mouseover/mouseleave code to the hidden div as well"
        }
    },
    "config": {
        "editor":{
            "language": "ru",
            "height": 300,
            "mathJaxLib" : "//cdnjs.cloudflare.com/ajax/libs/mathjax/2.7.4/MathJax.js?config=TeX-AMS_HTML",
            "extraPlugins": ["mathjax", "texzilla", "eqneditor", "FMathEditor", "video", "replaceTagNameByBsquochoai","timestamp"]
        }
    }
}
